{
  "AWSEBDockerrunVersion": "1",
  "Image": {
    "Name": "651992158214.dkr.ecr.sa-east-1.amazonaws.com/lesstraffic/geolocation-producer:latest",
    "Update": "true"
  },
  "Ports": [
    {
      "ContainerPort": "8089"
    }
  ]
}
